{
    "Κτήρια" : {
        "link": {
            "path" : "/buildings",
            "icon" : "fa fa-building" 
        },
        "fields" : {
            "name" : {
                "input" : {
                    "type" : "text",
                    "placeholder" : "Εισάγετε όνομα..."
                },
                "isReferenced" : true
            },
            "address" : {
                "input" : {
                    "type" : "text",
                    "placeholder" : "Εισάγετε διεύθυνση..."
                },
                "isOptional" : true
            }
        }
    },


    "Διευθύνσεις & Τμήματα" : {
        "link" : {
            "path" : "/services",
            "innerPath" : "/search/parent",
            "params" : {
                "id" : ""
            }
        },
        "fields" : {
            "name" : {
                "input" : {
                    "type" : "text",
                    "placeholder" : "Εισάγετε όνομα..."
                },
                "isReferenced" : true,
                "omitOnSearch" : true,
                "hasLink" : true
            },
            "building":{
                "input" : {
                    "type" : "text",
                    "placeholder" : "Υπάρχων κτήριο..."
                },
                "isEntity": true,
                "isOptional": true,
                "isExtra" : true
            },
            "floor" : {
                "input" : {
                    "type" : "number",
                    "floor" : "Εισάγετε όροφο..."
                },
                "isOptional" : true
            },
            "manager" : {
                "input" : {
                    "type" : "text",
                    "placeholder" : "π.χ 1 Γιάννης Παπαδόπουλος"
                },
                "isEntity" : true,
                "hasSpaceSeparatedFields": true,
                "isOptional" : true,
                "isExtra" : true
            },
            "parentService" : {
                "input" : {
                    "type" : "text",
                    "placeholder" : "π.χ Επιστημονική Υπηρεσία"
                },
                "isEntity" : true,
                "isOptional" : true
            }
        },
        "isTree" : true,
        "isSearchItem" : true
    },

    "Εργαζόμενοι" : {
        "link" : {
            "path" : "/employees",
            "icon" : "fa fa-user"
        },
        "fields" : {
            "code" : {
                "input" : {
                    "type" : "number",
                    "data-fixed" : true,
                    "placeholder" : "Εισάγετε αναγνωριστικό"
                },
                "isReferenced" : true,
                "isIncluded" : true
            },
            "firstName" : {
                "input" : {
                    "type" : "text",
                    "placeholder" : "π.χ Γιάννης"
                },
                "isReferenced" : true,
                "omitOnSearch" : true
            },
            "lastName" : {
                "input" : {
                    "type" : "text",
                    "placeholder" : "π.χ Παπαδόπουλος"
                },
                "isReferenced" : true,
                "omitOnSearch" : true
            },
            "service" : {
                "input" : {
                    "type" : "text",
                    "placeholder" : "π.χ Επιστημονική Υπηρεσία"
                },
                "isEntity" : true,
                "isExtra" : true
            }
        },
        "isSearchItem" : true
    },


    "Εξοπλισμός" : {
        "link" : {
            "path" : "/items",
            "icon" : "fa fa-desktop"
        },
        "fields" : {
            "barcode" : {
                "input" : {
                    "type" : "number",
                    "placeholder" : "π.χ 20819731"
                },
                "isReferenced" : true
            },
            "type":{
                "input" : {
                    "placeholder" : "Υπάρχων τύπος..."
                },
                "isEntity" : true
            },
            "owner" : {
                "input" : {
                    "placeholder" : "Υπάρχων εργαζόμενος..."
                },
                "isEntity" : true,
                "isOptional" : true,
                "hasSpaceSeparatedFields": true
            }
        },
        "isFinal" : false,
        "isSearchItem" : true,
        "info" : ["Η τροποποίηση του ιδιοκτήτη ενός αντικειμένου ", 
                  "γίνεται και μέσω κάποιας Ενέργειας, ",
                  "πιο πρόσφατης από την τελευταία με το πεδίο 'Προς' ",
                  "συμπληρωμένο με το όνομα του νέου ιδιοκτήτη, στην ενότητα 'Ιστορικό & Διαχείριση'."]
    },


    "Είδη" : {
        "link" : {
            "path" : "/types"
        },
        "fields" : {
            "name" : {
                "input" : {
                    "type" : "text",
                    "placeholder" : "Εισάγετε μια νέα κατηγορία..."
                },
                "isReferenced" : true
            }
        }
    },


    "Ενέργειες" : {
        "link" : {
            "path" : "/actionInfos",
            "icon" : "fa fa-directions"
        },
        "fields" : {
            "name" : {
                "input" : {
                    "type" : "text",
                    "placeholder" :"Νέος τύπος ενέργειας..."
                },
                "isReferenced": true
            }
        }
    },

    "Ιστορικό & Διαχείριση" : {
        "link" : {
            "path" : "/actions",
            "icon" : "fa fa-clipboard"
        },
        "fields" : {
            "item" : {
                "input" : {
                    "type" : "number",
                    "placeholder" :"Κωδικός αντικειμένου"
                },
                "isEntity" : true
            },
            "actionInfo" : {
                "input" : {
                    "type" : "text",
                    "placeholder" :"π.χ Αγορά"
                },
                "isEntity" : true
            },
            "actor" : {
                "input" : {
                    "type" : "text",
                    "placeholder" :"Αποστολέας"
                },
                "isEntity" : true,
                "hasSpaceSeparatedFields": true
            },
            "receiver" : {
                "input" : {
                    "type" : "text",
                    "placeholder" :"Παραλήπτης..."
                },
                "isEntity" : true,
                "isOptional" : true,
                "hasSpaceSeparatedFields": true
            },
            "actionDate" : {
                "input" : {
                    "type" : "date",
                    "placeholder" :"Εισάγετε ημερομηνία"
                },
                "isOptional" : true
            }
        },
        "isSeparator" : true,
        "isSection" : true
    },
    "Αναζήτηση" : {
        "link" : {
            "path" : "/search",
            "icon" : "fa fa-search",
            "isAbsolute" : true
        }    
    }
}